{
  "groups": [
    {
      "name": "spring.application",
      "type": "java.lang.String",
      "description": "中文名.",
      "sourceType": "com.core.example.framework.enums.ResponseEnum"
    }
  ],
  "properties": [
    {
      "name": "spring.application.chineseName",
      "type": "java.lang.String",
      "description": "此项目的中文名,如果不配置则是spring.application.name名.",
      "sourceType": "java.lang.String"
    }
  ]
}
